…
I compute the range, mean, median, and sd across month

``` r
flow_sample %>%
  group_by(month) %>%
  summarise(mean = mean(flow), 
            r =range(flow), 
            sd = sd(flow), 
            var = var(flow))
```

    ## `summarise()` has grouped output by 'month'. You can override using the `.groups` argument.

    ## # A tibble: 22 x 5
    ## # Groups:   month [11]
    ##    month   mean      r     sd      var
    ##    <dbl>  <dbl>  <dbl>  <dbl>    <dbl>
    ##  1     1   6.50   3.62  1.22     1.48 
    ##  2     1   6.50   8.41  1.22     1.48 
    ##  3     2   6.07   4.08  0.956    0.914
    ##  4     2   6.07   7.98  0.956    0.914
    ##  5     3   6.42   4.14  1.03     1.06 
    ##  6     3   6.42   8.44  1.03     1.06 
    ##  7     4   6.17   4.9   0.833    0.694
    ##  8     4   6.17   7.53  0.833    0.694
    ##  9     5 194.   133    41.8   1750.   
    ## 10     5 194.   289    41.8   1750.   
    ## # ... with 12 more rows
…
## Task 2.1

Now I play with some functions from tidyverse.

I will unite the year, month, and day to make date.

``` r
(flow_sample1 <- flow_sample %>%
    unite(col = "date", c(year, month, day), sep = "-"))
```

    ## # A tibble: 218 x 8
    ##    station_id date      extreme_type  flow sym   season month_Flow decades  
    ##    <chr>      <chr>     <chr>        <dbl> <chr> <fct>  <chr>      <fct>    
    ##  1 05BB001    1909-7-7  maximum        314 <NA>  Summer High Flow  1900-1929
    ##  2 05BB001    1910-6-12 maximum        230 <NA>  Summer High Flow  1900-1929
    ##  3 05BB001    1911-6-14 maximum        264 <NA>  Summer High Flow  1900-1929
    ##  4 05BB001    1912-8-25 maximum        174 <NA>  Summer High Flow  1900-1929
    ##  5 05BB001    1913-6-11 maximum        232 <NA>  Summer High Flow  1900-1929
    ##  6 05BB001    1914-6-18 maximum        214 <NA>  Summer High Flow  1900-1929
    ##  7 05BB001    1915-6-27 maximum        236 <NA>  Summer High Flow  1900-1929
    ##  8 05BB001    1916-6-20 maximum        309 <NA>  Summer High Flow  1900-1929
    ##  9 05BB001    1917-6-17 maximum        174 <NA>  Summer High Flow  1900-1929
    ## 10 05BB001    1918-6-15 maximum        345 <NA>  Summer High Flow  1900-1929
    ## # ... with 208 more rows

``` r
print(flow_sample1)
```

    ## # A tibble: 218 x 8
    ##    station_id date      extreme_type  flow sym   season month_Flow decades  
    ##    <chr>      <chr>     <chr>        <dbl> <chr> <fct>  <chr>      <fct>    
    ##  1 05BB001    1909-7-7  maximum        314 <NA>  Summer High Flow  1900-1929
    ##  2 05BB001    1910-6-12 maximum        230 <NA>  Summer High Flow  1900-1929
    ##  3 05BB001    1911-6-14 maximum        264 <NA>  Summer High Flow  1900-1929
    ##  4 05BB001    1912-8-25 maximum        174 <NA>  Summer High Flow  1900-1929
    ##  5 05BB001    1913-6-11 maximum        232 <NA>  Summer High Flow  1900-1929
    ##  6 05BB001    1914-6-18 maximum        214 <NA>  Summer High Flow  1900-1929
    ##  7 05BB001    1915-6-27 maximum        236 <NA>  Summer High Flow  1900-1929
    ##  8 05BB001    1916-6-20 maximum        309 <NA>  Summer High Flow  1900-1929
    ##  9 05BB001    1917-6-17 maximum        174 <NA>  Summer High Flow  1900-1929
    ## 10 05BB001    1918-6-15 maximum        345 <NA>  Summer High Flow  1900-1929
    ## # ... with 208 more rows

Now I separate them again.

``` r
(flow_sample1.1 <- flow_sample1 %>%
    separate(date, into = c( "year", "month", "day"), sep = "-"))
```

    ## # A tibble: 218 x 10
    ##    station_id year  month day   extreme_type  flow sym   season month_Flow
    ##    <chr>      <chr> <chr> <chr> <chr>        <dbl> <chr> <fct>  <chr>     
    ##  1 05BB001    1909  7     7     maximum        314 <NA>  Summer High Flow 
    ##  2 05BB001    1910  6     12    maximum        230 <NA>  Summer High Flow 
    ##  3 05BB001    1911  6     14    maximum        264 <NA>  Summer High Flow 
    ##  4 05BB001    1912  8     25    maximum        174 <NA>  Summer High Flow 
    ##  5 05BB001    1913  6     11    maximum        232 <NA>  Summer High Flow 
    ##  6 05BB001    1914  6     18    maximum        214 <NA>  Summer High Flow 
    ##  7 05BB001    1915  6     27    maximum        236 <NA>  Summer High Flow 
    ##  8 05BB001    1916  6     20    maximum        309 <NA>  Summer High Flow 
    ##  9 05BB001    1917  6     17    maximum        174 <NA>  Summer High Flow 
    ## 10 05BB001    1918  6     15    maximum        345 <NA>  Summer High Flow 
    ## # ... with 208 more rows, and 1 more variable: decades <fct>

``` r
print(flow_sample1.1)
```

    ## # A tibble: 218 x 10
    ##    station_id year  month day   extreme_type  flow sym   season month_Flow
    ##    <chr>      <chr> <chr> <chr> <chr>        <dbl> <chr> <fct>  <chr>     
    ##  1 05BB001    1909  7     7     maximum        314 <NA>  Summer High Flow 
    ##  2 05BB001    1910  6     12    maximum        230 <NA>  Summer High Flow 
    ##  3 05BB001    1911  6     14    maximum        264 <NA>  Summer High Flow 
    ##  4 05BB001    1912  8     25    maximum        174 <NA>  Summer High Flow 
    ##  5 05BB001    1913  6     11    maximum        232 <NA>  Summer High Flow 
    ##  6 05BB001    1914  6     18    maximum        214 <NA>  Summer High Flow 
    ##  7 05BB001    1915  6     27    maximum        236 <NA>  Summer High Flow 
    ##  8 05BB001    1916  6     20    maximum        309 <NA>  Summer High Flow 
    ##  9 05BB001    1917  6     17    maximum        174 <NA>  Summer High Flow 
    ## 10 05BB001    1918  6     15    maximum        345 <NA>  Summer High Flow 
    ## # ... with 208 more rows, and 1 more variable: decades <fct>

I am now doing to untidy the data by widening the data so we see the
flow of each `extreme_type` by making `extreme_type` it’s own column.

``` r
(flow_sample2 <- flow_sample %>%
  pivot_wider(id_cols = c(-extreme_type, -flow),
              names_from = extreme_type,
              values_from = flow))
```

    ## # A tibble: 218 x 10
    ##    station_id  year month   day sym   season month_Flow decades  maximum minimum
    ##    <chr>      <dbl> <dbl> <dbl> <chr> <fct>  <chr>      <fct>      <dbl>   <dbl>
    ##  1 05BB001     1909     7     7 <NA>  Summer High Flow  1900-19~     314      NA
    ##  2 05BB001     1910     6    12 <NA>  Summer High Flow  1900-19~     230      NA
    ##  3 05BB001     1911     6    14 <NA>  Summer High Flow  1900-19~     264      NA
    ##  4 05BB001     1912     8    25 <NA>  Summer High Flow  1900-19~     174      NA
    ##  5 05BB001     1913     6    11 <NA>  Summer High Flow  1900-19~     232      NA
    ##  6 05BB001     1914     6    18 <NA>  Summer High Flow  1900-19~     214      NA
    ##  7 05BB001     1915     6    27 <NA>  Summer High Flow  1900-19~     236      NA
    ##  8 05BB001     1916     6    20 <NA>  Summer High Flow  1900-19~     309      NA
    ##  9 05BB001     1917     6    17 <NA>  Summer High Flow  1900-19~     174      NA
    ## 10 05BB001     1918     6    15 <NA>  Summer High Flow  1900-19~     345      NA
    ## # ... with 208 more rows

``` r
arrange_all(flow_sample2)
```

    ## # A tibble: 218 x 10
    ##    station_id  year month   day sym   season month_Flow decades  maximum minimum
    ##    <chr>      <dbl> <dbl> <dbl> <chr> <fct>  <chr>      <fct>      <dbl>   <dbl>
    ##  1 05BB001     1909     7     7 <NA>  Summer High Flow  1900-19~     314   NA   
    ##  2 05BB001     1909    NA    NA <NA>  <NA>   <NA>       1900-19~      NA   NA   
    ##  3 05BB001     1910     6    12 <NA>  Summer High Flow  1900-19~     230   NA   
    ##  4 05BB001     1910    NA    NA <NA>  <NA>   <NA>       1900-19~      NA   NA   
    ##  5 05BB001     1911     2    27 <NA>  Winter Low Flow   1900-19~      NA    5.75
    ##  6 05BB001     1911     6    14 <NA>  Summer High Flow  1900-19~     264   NA   
    ##  7 05BB001     1912     3    14 <NA>  Spring Low Flow   1900-19~      NA    5.8 
    ##  8 05BB001     1912     8    25 <NA>  Summer High Flow  1900-19~     174   NA   
    ##  9 05BB001     1913     3    18 B     Spring Low Flow   1900-19~      NA    6.12
    ## 10 05BB001     1913     6    11 <NA>  Summer High Flow  1900-19~     232   NA   
    ## # ... with 208 more rows
…
``` r
which(is.na(flow_sample2$maximum) & is.na(flow_sample2$minimum) )
```

    ## [1] 110 111

These are the two rows I will remove.

``` r
flow_sample2.1 <- flow_sample2[-c(110,111),]
arrange_all(flow_sample2.1)
```

    ## # A tibble: 216 x 10
    ##    station_id  year month   day sym   season month_Flow decades  maximum minimum
    ##    <chr>      <dbl> <dbl> <dbl> <chr> <fct>  <chr>      <fct>      <dbl>   <dbl>
    ##  1 05BB001     1909     7     7 <NA>  Summer High Flow  1900-19~     314   NA   
    ##  2 05BB001     1910     6    12 <NA>  Summer High Flow  1900-19~     230   NA   
    ##  3 05BB001     1911     2    27 <NA>  Winter Low Flow   1900-19~      NA    5.75
    ##  4 05BB001     1911     6    14 <NA>  Summer High Flow  1900-19~     264   NA   
    ##  5 05BB001     1912     3    14 <NA>  Spring Low Flow   1900-19~      NA    5.8 
    ##  6 05BB001     1912     8    25 <NA>  Summer High Flow  1900-19~     174   NA   
    ##  7 05BB001     1913     3    18 B     Spring Low Flow   1900-19~      NA    6.12
    ##  8 05BB001     1913     6    11 <NA>  Summer High Flow  1900-19~     232   NA   
    ##  9 05BB001     1914     6    18 <NA>  Summer High Flow  1900-19~     214   NA   
    ## 10 05BB001     1914    11    17 <NA>  Autumn Low Flow   1900-19~      NA    7.16
    ## # ... with 206 more rows

Now I will put it back.

``` r
flow_sample2.2 <- flow_sample2 %>% 
  pivot_longer(cols = c(maximum, minimum ), 
               names_to  = "extreme_type", 
               values_to = "flow")
arrange_all(flow_sample2.2)
```

    ## # A tibble: 436 x 10
    ##    station_id  year month   day sym   season month_Flow decades   extreme_type
    ##    <chr>      <dbl> <dbl> <dbl> <chr> <fct>  <chr>      <fct>     <chr>       
    ##  1 05BB001     1909     7     7 <NA>  Summer High Flow  1900-1929 maximum     
    ##  2 05BB001     1909     7     7 <NA>  Summer High Flow  1900-1929 minimum     
    ##  3 05BB001     1909    NA    NA <NA>  <NA>   <NA>       1900-1929 maximum     
    ##  4 05BB001     1909    NA    NA <NA>  <NA>   <NA>       1900-1929 minimum     
    ##  5 05BB001     1910     6    12 <NA>  Summer High Flow  1900-1929 maximum     
    ##  6 05BB001     1910     6    12 <NA>  Summer High Flow  1900-1929 minimum     
    ##  7 05BB001     1910    NA    NA <NA>  <NA>   <NA>       1900-1929 maximum     
    ##  8 05BB001     1910    NA    NA <NA>  <NA>   <NA>       1900-1929 minimum     
    ##  9 05BB001     1911     2    27 <NA>  Winter Low Flow   1900-1929 maximum     
    ## 10 05BB001     1911     2    27 <NA>  Winter Low Flow   1900-1929 minimum     
    ## # ... with 426 more rows, and 1 more variable: flow <dbl>
…
## Task 2.3

``` r
flow_sampleTR <-flow_sample[-c(110,111),] %>%
  filter(extreme_type == "maximum") %>%
select(-c(station_id, sym)) %>%
  select(year, season, flow, month, day, extreme_type)


arrange_all(flow_sampleTR)
```

    ## # A tibble: 109 x 6
    ##     year season  flow month   day extreme_type
    ##    <dbl> <fct>  <dbl> <dbl> <dbl> <chr>       
    ##  1  1909 Summer   314     7     7 maximum     
    ##  2  1910 Summer   230     6    12 maximum     
    ##  3  1911 Summer   264     6    14 maximum     
    ##  4  1912 Summer   174     8    25 maximum     
    ##  5  1913 Summer   232     6    11 maximum     
    ##  6  1914 Summer   214     6    18 maximum     
    ##  7  1915 Summer   236     6    27 maximum     
    ##  8  1916 Summer   309     6    20 maximum     
    ##  9  1917 Summer   174     6    17 maximum     
    ## 10  1918 Summer   345     6    15 maximum     
    ## # ... with 99 more rows
…
